<svg width="310" height="157" viewBox="0 0 310 157" fill="none" xmlns="http://www.w3.org/2000/svg">
<path d="M3.53775 3.5603C8.26222 -1.17988 15.9287 -1.18716 20.6634 3.54271L146.437 129.215C151.16 133.943 158.841 133.942 163.572 129.206L289.337 3.54271C294.071 -1.18777 301.737 -1.17988 306.462 3.5603C311.186 8.30048 311.178 15.9773 306.445 20.7072L180.688 146.362C173.604 153.455 164.301 157 154.996 157C145.698 157 136.397 153.456 129.321 146.371L3.55532 20.7072C-1.17824 15.9773 -1.18612 8.30048 3.53775 3.5603Z" fill="white"/>
</svg>
